<?xml version="1.0" encoding="utf-8"?>
<!-- Generator: Adobe Illustrator 22.0.1, SVG Export Plug-In . SVG Version: 6.00 Build 0)  -->
<svg version="1.1" id="katman_2_1_" xmlns="http://www.w3.org/2000/svg" xmlns:xlink="http://www.w3.org/1999/xlink" x="0px"
	 y="0px" viewBox="0 0 15 16" style="enable-background:new 0 0 15 16;" xml:space="preserve">
<style type="text/css">
	.st0{clip-path:url(#XMLID_2_);fill:#092883;}
	.st1{clip-path:url(#XMLID_2_);fill:#F5D4EF;}
</style>
<g>
	<defs>
		<circle id="XMLID_4_" cx="7.5" cy="8.1" r="7.3"/>
	</defs>
	<use xlink:href="#XMLID_4_"  style="overflow:visible;fill:#F9415C;"/>
	<clipPath id="XMLID_2_">
		<use xlink:href="#XMLID_4_"  style="overflow:visible;"/>
	</clipPath>
	<path class="st0" d="M9.3,10.1c-0.4,0.6-1,0.9-1.7,0.9c-0.7,0-1.3-0.4-1.7-0.9c-5.3-0.1-3.6,6.9-3.6,7l0,0l0,0l10.3,0.1l0,0l0,0
		C12.7,17,14.5,10.2,9.3,10.1z"/>
	<path class="st1" d="M7.6,2.6c-1.9,0-3.5,1.9-3.5,4.2c0,1.1,0.4,2.1,0.9,2.9C5.7,10.5,6.6,11,7.6,11c1,0,1.9-0.5,2.5-1.3
		c0.6-0.7,1-1.8,1-2.9C11.1,4.5,9.6,2.6,7.6,2.6z"/>
</g>
</svg>
